10 Functionalizing Code | Computing Concepts for Public Health Researchers
…
set.seed(3498743)

df <- tibble(
  i = 1:n,
  l = rbinom(n, 1, 0.3),
  m = rbinom(n, 1, 0.6),
  x = rbinom(n, 1, 0.3 + 0.2 * l + 0.2 * m),
  y = rbinom(n, 1, 0.05 + 0.2 * l + 0.4 * m + 0.05 * x)
)

print(df)

# A tibble: 500 × 5
       i     l     m     x     y
   <int> <int> <int> <int> <int>
 1     1     0     1     0     0
 2     2     0     1     1     1
 3     3     1     1     1     1
 4     4     0     1     0     0
 5     5     1     1     1     0
 6     6     0     1     0     0
 7     7     0     1     1     1
 8     8     0     0     1     0
 9     9     0     1     1     0
10    10     0     1     1     0
# … with 490 more rows
…
