6 Statistical Analysis | Computing Concepts for Public Health Researchers
…
nhefs[complete.cases(nhefs), ]

# A tibble: 44 × 64
    seqn  qsmk death yrdth modth dadth   sbp   dbp   sex   age  race income
   <dbl> <dbl> <dbl> <dbl> <dbl> <dbl> <dbl> <dbl> <dbl> <dbl> <dbl>  <dbl>
 1  1096     1     1    84    10    17   127    56     1    72     0     12
 2  1539     0     1    92     3    23   125    70     1    56     0     19
 3  1762     0     1    87     8    29   176   108     1    64     0     19
 4  1776     0     1    90    11    24   155    70     1    32     1     15
 5  2286     0     1    87     8    24   132    88     1    45     1     12
 6  4556     1     1    86     9     5   109    85     1    54     0     19
 7  5415     0     1    84     7    28   123    81     1    32     1     11
 8  6222     0     1    84     1    18   168    92     1    46     0     13
 9  6933     0     1    92     4    25   168    88     1    62     0     19
10  6944     1     1    88     7    15   138    75     1    56     0     19
# … with 34 more rows, and 52 more variables: marital <dbl>, school <dbl>,
#   education <dbl>, ht <dbl>, wt71 <dbl>, wt82 <dbl>, wt82_71 <dbl>,
#   birthplace <dbl>, smokeintensity <dbl>, smkintensity82_71 <dbl>,
#   smokeyrs <dbl>, asthma <dbl>, bronch <dbl>, tb <dbl>, hf <dbl>, hbp <dbl>,
#   pepticulcer <dbl>, colitis <dbl>, hepatitis <dbl>, chroniccough <dbl>,
#   hayfever <dbl>, diabetes <dbl>, polio <dbl>, tumor <dbl>,
#   nervousbreak <dbl>, alcoholpy <dbl>, alcoholfreq <dbl>, …
…
